Project: Part 2
…
The residual are highly autocorrelated, which is not desired in the
linear regression model.

We can improve the model by adding lagged values. We introduce
GARAN’s lag 1 value to the model:

garan_akbnk_data$GARAN_LAG1 <- lag(garan_akbnk_data$GARAN)
garan_akbnk_data

## # A tibble: 4,973 × 6
##    timestamp           GARAN AKBNK SELL_GARAN_BUY_AKBNK SELL_AKBNK_BUY_GARAN
##    <dttm>              <dbl> <dbl> <lgl>                <lgl>               
##  1 2018-01-02 06:00:00  9.20  6.95 FALSE                FALSE               
##  2 2018-01-02 07:00:00  9.32  7.06 FALSE                FALSE               
##  3 2018-01-02 08:00:00  9.34  7.10 FALSE                FALSE               
##  4 2018-01-02 09:00:00  9.32  7.08 FALSE                FALSE               
##  5 2018-01-02 10:00:00  9.33  7.10 FALSE                FALSE               
##  6 2018-01-02 11:00:00  9.34  7.14 FALSE                FALSE               
##  7 2018-01-02 12:00:00  9.32  7.12 FALSE                FALSE               
##  8 2018-01-02 13:00:00  9.34  7.12 FALSE                FALSE               
##  9 2018-01-02 14:00:00  9.33  7.12 FALSE                FALSE               
## 10 2018-01-02 15:00:00  9.32  7.11 FALSE                FALSE               
## # ℹ 4,963 more rows
## # ℹ 1 more variable: GARAN_LAG1 <dbl>
…
## 
##  Breusch-Godfrey test for serial correlation of order up to 10
## 
## data:  Residuals
## LM test = 4916.7, df = 10, p-value < 2.2e-16

The residuals are highly autocorrelated.

We can improve the model by adding lag 1 of ISCTR:

ykbnk_isctr_data$ISCTR_LAG1 <- lag(ykbnk_isctr_data$ISCTR)
ykbnk_isctr_data

## # A tibble: 4,973 × 6
##    timestamp           YKBNK ISCTR SELL_ISCTR_BUY_YKBNK SELL_YKBNK_BUY_ISCTR
##    <dttm>              <dbl> <dbl> <lgl>                <lgl>               
##  1 2018-01-02 06:00:00  2.45  2.63 FALSE                FALSE               
##  2 2018-01-02 07:00:00  2.47  2.64 FALSE                FALSE               
##  3 2018-01-02 08:00:00  2.48  2.64 FALSE                FALSE               
##  4 2018-01-02 09:00:00  2.48  2.64 FALSE                FALSE               
##  5 2018-01-02 10:00:00  2.48  2.64 FALSE                FALSE               
##  6 2018-01-02 11:00:00  2.50  2.67 FALSE                FALSE               
##  7 2018-01-02 12:00:00  2.49  2.66 FALSE                FALSE               
##  8 2018-01-02 13:00:00  2.49  2.66 FALSE                FALSE               
##  9 2018-01-02 14:00:00  2.49  2.66 FALSE                FALSE               
## 10 2018-01-02 15:00:00  2.49  2.66 FALSE                FALSE               
## # ℹ 4,963 more rows
## # ℹ 1 more variable: ISCTR_LAG1 <dbl>
…
